C:\Users\WILMER\Documents\NetBeansProjects\TE_eventos\src\main\java\com\emergentes\utiles\ConexionDB.java
C:\Users\WILMER\Documents\NetBeansProjects\TE_eventos\src\main\java\com\emergentes\modelo\Seminario.java
C:\Users\WILMER\Documents\NetBeansProjects\TE_eventos\src\main\java\com\emergentes\controlador\MainController.java
